12-bit Counter/test_counter.vcd
$date
    Fri Apr 19 12:20:18 2024
$end
$version
    MyHDL 0.11.45
$end
$timescale
    1ns
$end

$scope module test_counter $end
$var reg 12 ! count $end
$var reg 1 " c_en $end
$var reg 1 # clk $end
$var reg 1 $ rst $end
$var reg 1 % w_en $end
$var reg 12 & write_in $end
$scope module counter0 $end
$var reg 1 # clk $end
$var reg 1 $ rst $end
$var reg 1 " c_en $end
$var reg 1 % w_en $end
$var reg 12 ! count $end
$var reg 12 & write_in $end
$upscope $end
$upscope $end

$enddefinitions $end
$dumpvars
b000000000000 !
0"
0#
0$
0%
b000000000000 &
$end
1%
1"
b111111111111 &
#5
1$
1#
b111111111111 !
#10
0#
0%
#15
1#
b000000000000 !
#20
0#
#25
1#
b000000000001 !
#30
0#
#35
1#
b000000000010 !
#40
0#
#45
1#
b000000000011 !
#50
0#
#55
1#
0$
b000000000000 !
#60
0#
1%
0"
b000100010011 &
#65
1#
1$
b000100010011 !
#70
0#
0%
1"
#75
1#
b000100010100 !
#80
0#
#85
1#
b000100010101 !
#90
0#
#95
1#
b000100010110 !
#100
0#
#105
1#
b000100010111 !
#110
0#
#115
1#
0$
b000000000000 !
#120
0#
1%
0"
b000000000111 &
#125
1#
1$
b000000000111 !
#130
0#
0%
1"
#135
1#
b000000001000 !
#140
0#
#145
1#
b000000001001 !
#150
0#
#155
1#
b000000001010 !
#160
0#
#165
1#
b000000001011 !
#170
0#
#175
1#
0$
b000000000000 !
#180
0#
1%
0"
b011001001000 &
#185
1#
1$
b011001001000 !
#190
0#
0%
1"
#195
1#
b011001001001 !
#200
0#
#205
1#
b011001001010 !
#210
0#
#215
1#
b011001001011 !
#220
0#
#225
1#
b011001001100 !
#230
0#
#235
1#
0$
b000000000000 !
#240
0#
1%
0"
b001000111001 &
#245
1#
1$
b001000111001 !
#250
0#
0%
1"
#255
1#
b001000111010 !
#260
0#
#265
1#
b001000111011 !
#270
0#
#275
1#
b001000111100 !
#280
0#
#285
1#
b001000111101 !
#290
0#
#295
1#
0$
b000000000000 !
#300
0#
1%
0"
b001011101100 &
#305
1#
1$
b001011101100 !
#310
0#
0%
1"
#315
1#
b001011101101 !
#320
0#
#325
1#
b001011101110 !
#330
0#
#335
1#
b001011101111 !
#340
0#
#345
1#
b001011110000 !
#350
0#
#355
1#
0$
b000000000000 !
#360
0#
1%
0"
b101010000100 &
#365
1#
1$
b101010000100 !
#370
0#
0%
1"
#375
1#
b101010000101 !
#380
0#
#385
1#
b101010000110 !
#390
0#
#395
1#
b101010000111 !
#400
0#
#405
1#
b101010001000 !
#410
0#
#415
1#
0$
b000000000000 !
#420
0#
1%
0"
b001001101000 &
#425
1#
1$
b001001101000 !
#430
0#
0%
1"
#435
1#
b001001101001 !
#440
0#
#445
1#
b001001101010 !
#450
0#
#455
1#
b001001101011 !
#460
0#
#465
1#
b001001101100 !
#470
0#
#475
1#
0$
b000000000000 !
#480
0#
1%
0"
b011011110010 &
#485
1#
1$
b011011110010 !
#490
0#
0%
1"
#495
1#
b011011110011 !
