4-bit Decoder/test_decoder.vcd
$date
    Thu Jun 27 12:49:18 2024
$end
$version
    MyHDL 0.11.45
$end
$timescale
    1ns
$end

$scope module test_decoder $end
$var reg 16 ! out $end
$var reg 1 " en $end
$var reg 4 # inp $end
$scope module decoder_4bit0 $end
$var reg 4 # inpu $end
$var reg 16 ! out $end
$var reg 1 " enable $end
$upscope $end
$upscope $end

$enddefinitions $end
$dumpvars
b0000000000000000 !
1"
b0000 #
$end
b0000000000000001 !
#5
0"
b0000000000000000 !
#10
1"
b0001 #
b0000000000000010 !
#15
0"
b0000000000000000 !
#20
1"
b0010 #
b0000000000000100 !
#25
0"
b0000000000000000 !
#30
1"
b0011 #
b0000000000001000 !
#35
0"
b0000000000000000 !
#40
1"
b0100 #
b0000000000010000 !
#45
0"
b0000000000000000 !
#50
1"
b0101 #
b0000000000100000 !
#55
0"
b0000000000000000 !
#60
1"
b0110 #
b0000000001000000 !
#65
0"
b0000000000000000 !
#70
1"
b0111 #
b0000000010000000 !
#75
0"
b0000000000000000 !
#80
1"
b1000 #
b0000000100000000 !
#85
0"
b0000000000000000 !
#90
1"
b1001 #
b0000001000000000 !
#95
0"
b0000000000000000 !
#100
1"
b1010 #
b0000010000000000 !
#105
0"
b0000000000000000 !
#110
1"
b1011 #
b0000100000000000 !
#115
0"
b0000000000000000 !
#120
1"
b1100 #
b0001000000000000 !
#125
0"
b0000000000000000 !
#130
1"
b1101 #
b0010000000000000 !
#135
0"
b0000000000000000 !
#140
1"
b1110 #
b0100000000000000 !
#145
0"
b0000000000000000 !
#150
1"
b1111 #
b1000000000000000 !
#155
0"
b0000000000000000 !
#160
1"
b0000 #
b0000000000000001 !
#165
0"
b0000000000000000 !
#170
1"
b0001 #
b0000000000000010 !
#175
0"
b0000000000000000 !
#180
1"
b0010 #
b0000000000000100 !
#185
0"
b0000000000000000 !
#190
1"
b0011 #
b0000000000001000 !
#195
0"
b0000000000000000 !
#200
1"
b0100 #
b0000000000010000 !
#205
0"
b0000000000000000 !
#210
1"
b0101 #
b0000000000100000 !
#215
0"
b0000000000000000 !
#220
1"
b0110 #
b0000000001000000 !
#225
0"
b0000000000000000 !
#230
1"
b0111 #
b0000000010000000 !
#235
0"
b0000000000000000 !
#240
1"
b1000 #
b0000000100000000 !
#245
0"
b0000000000000000 !
#250
1"
b1001 #
b0000001000000000 !
#255
0"
b0000000000000000 !
#260
1"
b1010 #
b0000010000000000 !
#265
0"
b0000000000000000 !
#270
1"
b1011 #
b0000100000000000 !
#275
0"
b0000000000000000 !
#280
1"
b1100 #
b0001000000000000 !
#285
0"
b0000000000000000 !
#290
1"
b1101 #
b0010000000000000 !
#295
0"
b0000000000000000 !
#300
1"
b1110 #
b0100000000000000 !
#305
0"
b0000000000000000 !
#310
1"
b1111 #
b1000000000000000 !
#315
0"
b0000000000000000 !
#320
1"
b0000 #
b0000000000000001 !
#325
0"
b0000000000000000 !
#330
1"
b0001 #
b0000000000000010 !
#335
0"
b0000000000000000 !
#340
1"
b0010 #
b0000000000000100 !
#345
0"
b0000000000000000 !
#350
1"
b0011 #
b0000000000001000 !
#355
0"
b0000000000000000 !
#360
1"
b0100 #
b0000000000010000 !
#365
0"
b0000000000000000 !
#370
1"
b0101 #
b0000000000100000 !
#375
0"
b0000000000000000 !
#380
1"
b0110 #
b0000000001000000 !
#385
0"
b0000000000000000 !
#390
1"
b0111 #
b0000000010000000 !
#395
0"
b0000000000000000 !
#400
1"
b1000 #
b0000000100000000 !
#405
0"
b0000000000000000 !
#410
1"
b1001 #
b0000001000000000 !
#415
0"
b0000000000000000 !
#420
1"
b1010 #
b0000010000000000 !
#425
0"
b0000000000000000 !
#430
1"
b1011 #
b0000100000000000 !
#435
0"
b0000000000000000 !
#440
1"
b1100 #
b0001000000000000 !
#445
0"
b0000000000000000 !
#450
1"
b1101 #
b0010000000000000 !
#455
0"
b0000000000000000 !
#460
1"
b1110 #
b0100000000000000 !
#465
0"
b0000000000000000 !
#470
1"
b1111 #
b1000000000000000 !
#475
0"
b0000000000000000 !
#480
1"
b0000 #
b0000000000000001 !
#485
0"
b0000000000000000 !
#490
1"
b0001 #
b0000000000000010 !
#495
0"
b0000000000000000 !
#500
1"
b0010 #
b0000000000000100 !
#505
0"
b0000000000000000 !
#510
1"
b0011 #
b0000000000001000 !
#515
0"
b0000000000000000 !
#520
1"
b0100 #
b0000000000010000 !
#525
0"
b0000000000000000 !
#530
1"
b0101 #
b0000000000100000 !
#535
0"
b0000000000000000 !
#540
1"
b0110 #
b0000000001000000 !
#545
0"
b0000000000000000 !
#550
1"
b0111 #
b0000000010000000 !
#555
0"
b0000000000000000 !
#560
1"
b1000 #
b0000000100000000 !
#565
0"
b0000000000000000 !
#570
1"
b1001 #
b0000001000000000 !
#575
0"
b0000000000000000 !
#580
1"
b1010 #
b0000010000000000 !
#585
0"
b0000000000000000 !
#590
1"
b1011 #
b0000100000000000 !
#595
0"
b0000000000000000 !
#600
1"
b1100 #
b0001000000000000 !
#605
0"
b0000000000000000 !
#610
1"
b1101 #
b0010000000000000 !
#615
0"
b0000000000000000 !
#620
1"
b1110 #
b0100000000000000 !
#625
0"
b0000000000000000 !
#630
1"
b1111 #
b1000000000000000 !
#635
0"
b0000000000000000 !
#640
1"
b0000 #
b0000000000000001 !
#645
0"
b0000000000000000 !
#650
1"
b0001 #
b0000000000000010 !
#655
0"
b0000000000000000 !
#660
1"
b0010 #
b0000000000000100 !
#665
0"
b0000000000000000 !
#670
1"
b0011 #
b0000000000001000 !
#675
0"
b0000000000000000 !
#680
1"
b0100 #
b0000000000010000 !
#685
0"
b0000000000000000 !
#690
1"
b0101 #
b0000000000100000 !
#695
0"
b0000000000000000 !
#700
1"
b0110 #
b0000000001000000 !
#705
0"
b0000000000000000 !
#710
1"
b0111 #
b0000000010000000 !
#715
0"
b0000000000000000 !
#720
1"
b1000 #
b0000000100000000 !
#725
0"
b0000000000000000 !
#730
1"
b1001 #
b0000001000000000 !
#735
0"
b0000000000000000 !
#740
1"
b1010 #
b0000010000000000 !
#745
0"
b0000000000000000 !
#750
1"
b1011 #
b0000100000000000 !
#755
0"
b0000000000000000 !
#760
1"
b1100 #
b0001000000000000 !
#765
0"
b0000000000000000 !
#770
1"
b1101 #
b0010000000000000 !
#775
0"
b0000000000000000 !
#780
1"
b1110 #
b0100000000000000 !
#785
0"
b0000000000000000 !
#790
1"
b1111 #
b1000000000000000 !
#795
0"
b0000000000000000 !
#800
1"
b0000 #
b0000000000000001 !
#805
0"
b0000000000000000 !
#810
1"
b0001 #
b0000000000000010 !
#815
0"
b0000000000000000 !
#820
1"
b0010 #
b0000000000000100 !
#825
0"
b0000000000000000 !
#830
1"
b0011 #
b0000000000001000 !
#835
0"
b0000000000000000 !
#840
1"
b0100 #
b0000000000010000 !
#845
0"
b0000000000000000 !
#850
1"
b0101 #
b0000000000100000 !
#855
0"
b0000000000000000 !
#860
1"
b0110 #
b0000000001000000 !
#865
0"
b0000000000000000 !
#870
1"
b0111 #
b0000000010000000 !
#875
0"
b0000000000000000 !
#880
1"
b1000 #
b0000000100000000 !
#885
0"
b0000000000000000 !
#890
1"
b1001 #
b0000001000000000 !
#895
0"
b0000000000000000 !
#900
1"
b1010 #
b0000010000000000 !
#905
0"
b0000000000000000 !
#910
1"
b1011 #
b0000100000000000 !
#915
0"
b0000000000000000 !
#920
1"
b1100 #
b0001000000000000 !
#925
0"
b0000000000000000 !
#930
1"
b1101 #
b0010000000000000 !
#935
0"
b0000000000000000 !
#940
1"
b1110 #
b0100000000000000 !
#945
0"
b0000000000000000 !
#950
1"
b1111 #
b1000000000000000 !
#955
0"
b0000000000000000 !
#960
1"
b0000 #
b0000000000000001 !
#965
0"
b0000000000000000 !
#970
1"
b0001 #
b0000000000000010 !
#975
0"
b0000000000000000 !
#980
1"
b0010 #
b0000000000000100 !
#985
0"
b0000000000000000 !
#990
1"
b0011 #
b0000000000001000 !
#995
0"
b0000000000000000 !
#1000
1"
b0100 #
b0000000000010000 !
#1005
0"
b0000000000000000 !
#1010
1"
b0101 #
b0000000000100000 !
#1015
0"
b0000000000000000 !
#1020
1"
b0110 #
b0000000001000000 !
#1025
0"
b0000000000000000 !
#1030
1"
b0111 #
b0000000010000000 !
#1035
0"
b0000000000000000 !
#1040
1"
b1000 #
b0000000100000000 !
#1045
0"
b0000000000000000 !
#1050
1"
b1001 #
b0000001000000000 !
#1055
0"
b0000000000000000 !
#1060
1"
b1010 #
b0000010000000000 !
#1065
0"
b0000000000000000 !
#1070
1"
b1011 #
b0000100000000000 !
#1075
0"
b0000000000000000 !
#1080
1"
b1100 #
b0001000000000000 !
#1085
0"
b0000000000000000 !
#1090
1"
b1101 #
b0010000000000000 !
#1095
0"
b0000000000000000 !
#1100
1"
b1110 #
b0100000000000000 !
#1105
0"
b0000000000000000 !
#1110
1"
b1111 #
b1000000000000000 !
#1115
0"
b0000000000000000 !
#1120
1"
b0000 #
b0000000000000001 !
#1125
0"
b0000000000000000 !
#1130
1"
b0001 #
b0000000000000010 !
#1135
0"
b0000000000000000 !
#1140
1"
b0010 #
b0000000000000100 !
#1145
0"
b0000000000000000 !
#1150
1"
b0011 #
b0000000000001000 !
#1155
0"
b0000000000000000 !
#1160
1"
b0100 #
b0000000000010000 !
#1165
0"
b0000000000000000 !
#1170
1"
b0101 #
b0000000000100000 !
#1175
0"
b0000000000000000 !
#1180
1"
b0110 #
b0000000001000000 !
#1185
0"
b0000000000000000 !
#1190
1"
b0111 #
b0000000010000000 !
#1195
0"
b0000000000000000 !
#1200
1"
b1000 #
b0000000100000000 !
#1205
0"
b0000000000000000 !
#1210
1"
b1001 #
b0000001000000000 !
#1215
0"
b0000000000000000 !
#1220
1"
b1010 #
b0000010000000000 !
#1225
0"
b0000000000000000 !
#1230
1"
b1011 #
b0000100000000000 !
#1235
0"
b0000000000000000 !
#1240
1"
b1100 #
b0001000000000000 !
#1245
0"
b0000000000000000 !
#1250
1"
b1101 #
b0010000000000000 !
#1255
0"
b0000000000000000 !
#1260
1"
b1110 #
b0100000000000000 !
#1265
0"
b0000000000000000 !
#1270
1"
b1111 #
b1000000000000000 !
#1275
0"
b0000000000000000 !
#1280
1"
b0000 #
b0000000000000001 !
#1285
0"
b0000000000000000 !
#1290
1"
b0001 #
b0000000000000010 !
#1295
0"
b0000000000000000 !
#1300
1"
b0010 #
b0000000000000100 !
#1305
0"
b0000000000000000 !
#1310
1"
b0011 #
b0000000000001000 !
#1315
0"
b0000000000000000 !
#1320
1"
b0100 #
b0000000000010000 !
#1325
0"
b0000000000000000 !
#1330
1"
b0101 #
b0000000000100000 !
#1335
0"
b0000000000000000 !
#1340
1"
b0110 #
b0000000001000000 !
#1345
0"
b0000000000000000 !
#1350
1"
b0111 #
b0000000010000000 !
#1355
0"
b0000000000000000 !
#1360
1"
b1000 #
b0000000100000000 !
#1365
0"
b0000000000000000 !
#1370
1"
b1001 #
b0000001000000000 !
#1375
0"
b0000000000000000 !
#1380
1"
b1010 #
b0000010000000000 !
#1385
0"
b0000000000000000 !
#1390
1"
b1011 #
b0000100000000000 !
#1395
0"
b0000000000000000 !
#1400
1"
b1100 #
b0001000000000000 !
#1405
0"
b0000000000000000 !
#1410
1"
b1101 #
b0010000000000000 !
#1415
0"
b0000000000000000 !
#1420
1"
b1110 #
b0100000000000000 !
#1425
0"
b0000000000000000 !
#1430
1"
b1111 #
b1000000000000000 !
#1435
0"
b0000000000000000 !
#1440
1"
b0000 #
b0000000000000001 !
#1445
0"
b0000000000000000 !
#1450
1"
b0001 #
b0000000000000010 !
#1455
0"
b0000000000000000 !
#1460
1"
b0010 #
b0000000000000100 !
#1465
0"
b0000000000000000 !
#1470
1"
b0011 #
b0000000000001000 !
#1475
0"
b0000000000000000 !
#1480
1"
b0100 #
b0000000000010000 !
#1485
0"
b0000000000000000 !
#1490
1"
b0101 #
b0000000000100000 !
#1495
0"
b0000000000000000 !
#1500
1"
b0110 #
b0000000001000000 !
